Assignment 3
…
##                Df         Sum Sq     Mean Sq F value              Pr(>F)    
## BLDG_AGE_dec    8   759448745473 94931093184   14.61 <0.0000000000000002 ***
## Residuals    3789 24614973006420  6496429930                                
## ---
## Signif. codes:  0 '***' 0.001 '**' 0.01 '*' 0.05 '.' 0.1 ' ' 1

In this test we see a very low p-value (<2e-16), indicating that there is a statistically significant relationship between annual household income and the decade of building construction. I will conduct a Tukeys HSD test and visualize the data on a box plot.

differences5 <- TukeyHSD(anova5)

as_tibble(cbind(pair = row.names(differences5$BLDG_AGE_dec),
                differences5$BLDG_AGE_dec))

## # A tibble: 36 x 5
##    pair           diff            lwr             upr            `p adj`        
##    <chr>          <chr>           <chr>           <chr>          <chr>          
##  1 1950s-1940s    -7.27878787909~ -39438.8503382~ 39424.2927624~ 1              
##  2 1960s-1940s    -5628.23718386~ -42681.3316076~ 31424.8572399~ 0.999937063971~
##  3 1970s-1940s    -10083.4985795~ -45232.6788081~ 25065.6816490~ 0.993506484715~
##  4 1980s-1940s    -15711.8686484~ -50597.4132346~ 19173.6759376~ 0.899009586819~
##  5 1990s-1940s    -3924.62956669~ -39069.4768338~ 31220.2177004~ 0.999994167963~
##  6 2000s-1940s    24039.69844789~ -11165.9727632~ 59245.3696590~ 0.460140807206~
##  7 2010s-1940s    14450.49293667~ -20934.3577816~ 49835.3436550~ 0.940671092332~
##  8 pre-1940s-194~ -11325.8007736~ -53791.8630870~ 31140.2615396~ 0.996060501989~
##  9 1960s-1950s    -5620.95839599~ -31162.9258689~ 19921.0090769~ 0.998994686749~
## 10 1970s-1950s    -10076.2197916~ -32768.1823941~ 12615.7428107~ 0.906243114653~
## # ... with 26 more rows
…
##                Df     Sum Sq Mean Sq F value              Pr(>F)    
## BLDG_AGE_dec    8   57444785 7180598   26.67 <0.0000000000000002 ***
## Residuals    3789 1020002514  269201                                
## ---
## Signif. codes:  0 '***' 0.001 '**' 0.01 '*' 0.05 '.' 0.1 ' ' 1

Yet again, a very low p-value (<2e-16), indicating that there is a statistically significant relationship between monthly rent and the decade of building construction. I will conduct another Tukeys HSD test and visualize the data on a box plot.

differences6 <- TukeyHSD(anova6)

as_tibble(cbind(pair = row.names(differences6$BLDG_AGE_dec),
                differences6$BLDG_AGE_dec))

## # A tibble: 36 x 5
##    pair          diff           lwr            upr            `p adj`           
##    <chr>         <chr>          <chr>          <chr>          <chr>             
##  1 1950s-1940s   -126.30303030~ -380.13424340~ 127.528182799~ 0.834458071396917 
##  2 1960s-1940s   -346.36568694~ -584.88602831~ -107.84534557~ 0.000233311664644~
##  3 1970s-1940s   -394.46448863~ -620.72884245~ -168.20013481~ 0.000002392200714~
##  4 1980s-1940s   -420.84295425~ -645.41021733~ -196.27569117~ 0.000000247581545~
##  5 1990s-1940s   -300.50240725~ -526.73886867~ -74.265945821~ 0.001270401724924~
##  6 2000s-1940s   -152.95994087~ -379.58794174~ 73.6680599976~ 0.477046734509243 
##  7 2010s-1940s   -118.90510221~ -346.68652785~ 108.876323437~ 0.793987637333937 
##  8 pre-1940s-19~ -297.61508704~ -570.98010113~ -24.250072945~ 0.0210066201096081
##  9 1960s-1950s   -220.06265664~ -384.48289995~ -55.642413324~ 0.001112370933232~
## 10 1970s-1950s   -268.16145833~ -414.23548400~ -122.08743265~ 0.000000482381048~
## # ... with 26 more rows
…
##                Df Sum Sq Mean Sq F value           Pr(>F)    
## BLDG_AGE_dec    8    262   32.73   9.085 0.00000000000192 ***
## Residuals    3789  13648    3.60                             
## ---
## Signif. codes:  0 '***' 0.001 '**' 0.01 '*' 0.05 '.' 0.1 ' ' 1

Once more, in this test we see a very low p-value (<2e-16), indicating that there is a statistically significant relationship between household size and the age of building construction. Next, the Tukeys HSD test and accompanying box plot.

differences7 <- TukeyHSD(anova7)

as_tibble(cbind(pair = row.names(differences7$BLDG_AGE_dec),
                differences7$BLDG_AGE_dec))

## # A tibble: 36 x 5
##    pair          diff             lwr             upr            `p adj`        
##    <chr>         <chr>            <chr>           <chr>          <chr>          
##  1 1950s-1940s   0.7163636363636~ -0.21214351891~ 1.64487079164~ 0.287109926835~
##  2 1960s-1940s   -0.104989747095~ -0.97749018126~ 0.76751068707~ 0.999989563175~
##  3 1970s-1940s   0.6676136363636~ -0.16005475374~ 1.49528202647~ 0.230446519326~
##  4 1980s-1940s   0.5402926604447~ -0.28116782136~ 1.36175314225~ 0.514344605872~
##  5 1990s-1940s   0.2837156612857~ -0.54385069926~ 1.11128202183~ 0.979168625387~
##  6 2000s-1940s   0.6119733924612  -0.21702520792~ 1.44097199284~ 0.347676458078~
##  7 2010s-1940s   0.0414824663453~ -0.79173532814~ 0.87470026083~ 0.999999990156~
##  8 pre-1940s-19~ 0.2448742746615~ -0.75508695346~ 1.24483550279~ 0.997834970494~
##  9 1960s-1950s   -0.821353383458~ -1.42279782572~ -0.2199089411~ 0.000774815457~
## 10 1970s-1950s   -0.048749999999~ -0.58308451458~ 0.48558451458~ 0.999998804127~
## # ... with 26 more rows
…
##                Df Sum Sq Mean Sq F value         Pr(>F)    
## BLDG_AGE_dec    8     66   8.197   7.562 0.000000000453 ***
## Residuals    3789   4107   1.084                           
## ---
## Signif. codes:  0 '***' 0.001 '**' 0.01 '*' 0.05 '.' 0.1 ' ' 1

In this test we see a low p-value (<4.53e-10), indicating that there is a statistically significant relationship between annual bedrooms per household and the age of building construction. Again, the Tukeys HSD test and accompanying box plot.

differences8 <- TukeyHSD(anova8)

as_tibble(cbind(pair = row.names(differences8$BLDG_AGE_dec),
                differences8$BLDG_AGE_dec))

## # A tibble: 36 x 5
##    pair          diff              lwr             upr            `p adj`       
##    <chr>         <chr>             <chr>           <chr>          <chr>         
##  1 1950s-1940s   0.018787878787931 -0.49056879453~ 0.52814455211~ 0.99999999909~
##  2 1960s-1940s   -0.0853725222145~ -0.56400525659~ 0.39326021216~ 0.99978733452~
##  3 1970s-1940s   -0.1186079545454~ -0.57264690879~ 0.33543099970~ 0.99658940313~
##  4 1980s-1940s   -0.16202327457076 -0.61265671977~ 0.28861017063~ 0.97200436216~
##  5 1990s-1940s   -0.1813367318039~ -0.63531971509~ 0.27264625149~ 0.94770028478~
##  6 2000s-1940s   0.03976348854401~ -0.41500518704~ 0.49453216413~ 0.99999914443~
##  7 2010s-1940s   -0.3989695861724~ -0.85605281007~ 0.05811363773~ 0.14483209025~
##  8 pre-1940s-19~ -0.0098646034815~ -0.55841926104~ 0.53869005408~ 0.99999999999~
##  9 1960s-1950s   -0.1041604010025~ -0.43409834338~ 0.22577754137~ 0.98772183352~
## 10 1970s-1950s   -0.1373958333333~ -0.43051888493~ 0.15572721827~ 0.87614555130~
## # ... with 26 more rows
…
